{
    "export": {
        "export_newsletter": {
            "name": "Export des newsletter",
            "visible": 1,
            "admin_logs_enable_tab": true,
            "sequence" : {
                "export_newsletter_newsletter": {
                    "class": "Project\\SalesForce\\Action\\Newsletter\\Export"
                },
                "report": {
                    "class": "Synolia\\Sync\\Model\\Action\\Log\\Report",
                    "params": {
                        "identifier": "customer_id",
                        "label": "customer_id",
                        "array_key": "subscribers"
                    }
                }
            },
            "exceptions": {
                "default": {
                    "printlog": "printlog",
                    "email": ["synolia", "louboutin", "export_newsletter"]
                }
            }
        }
    }
}
