code,tax_country_id,tax_region_id,tax_postcode,rate
AT_Shipping_Rate,AT,0,*,20.00
BE_Shipping_Rate,BE,0,*,21.00
CH_Shipping_Rate,CH,0,*,7.70
DE_Shipping_Rate,DE,0,*,19.00
ES_Shipping_Rate,ES,0,*,21.00
FR_Shipping_Rate,FR,0,*,20.00
GB_Shipping_Rate,GB,0,*,20.00
GR_Shipping_Rate,GR,0,*,24.00
IE_Shipping_Rate,IE,0,*,23.00
IT_Shipping_Rate,IT,0,*,22.00
LU_Shipping_Rate,LU,0,*,17.00
MC_Shipping_Rate,MC,0,*,20.00
NL_Shipping_Rate,NL,0,*,21.00
PT_Shipping_Rate,PT,0,*,23.00
