{
    "import": {
        "send_rma_received_email": {
            "name": "Send received RMA email",
            "visible": 1,
            "sequence": {
                "export_rma_data": {
                    "class": "Project\\Rma\\Model\\Action\\ReceivedEmail\\Export"
                }
            }
        }
    }
}
