{
  "export": {
    "send_rma_to_wms_us": {
      "name": "Send RMA to WMS US",
      "visible": 1,
      "sequence": {
        "export_order_data": {
          "class": "Project\\Wms\\Model\\Action\\Sales\\Rma\\Export",
          "params": {
            "website": "us"
          }
        },
        "call_api": {
          "class": "Project\\Wms\\Model\\Action\\CallApi",
          "params": {
            "api_path": "/api/returns",
            "website": "us"
          }
        },
        "response_processing": {
          "class": "Project\\Wms\\Model\\Action\\Sales\\Rma\\ResponseProcessing",
          "params": {
            "entity_type": "order",
            "api_method": "returns",
            "order_status": "processing_rma"
          }
        }
      }
    }
  }
}
