{
  "export": {
    "send_order_to_wms_ca": {
      "name": "Send order to WMS CA",
      "visible": 1,
      "sequence": {
        "export_order_data": {
          "class": "Project\\Wms\\Model\\Action\\Sales\\Order\\Export",
          "params": {
            "website": "ca"
          }
        },
        "call_api": {
          "class": "Project\\Wms\\Model\\Action\\CallApi",
          "params": {
            "api_path": "/api/magento_web_orders",
            "website": "ca"
          }
        },
        "response_processing": {
          "class": "Project\\Wms\\Model\\Action\\Sales\\Order\\ResponseProcessing"
        }
      }
    }
  }
}
